/*
WARNING: Do NOT edit the input and output ports in this file in a text
editor if you plan to continue editing the block that represents it in
the Block Editor! File corruption is VERY likely to occur.
*/
/*
Copyright (C) 2018  Intel Corporation. All rights reserved.
Your use of Intel Corporation's design tools, logic functions 
and other software and tools, and its AMPP partner logic 
functions, and any output files from any of the foregoing 
(including device programming or simulation files), and any 
associated documentation or information are expressly subject 
to the terms and conditions of the Intel Program License 
Subscription Agreement, the Intel Quartus Prime License Agreement,
the Intel FPGA IP License Agreement, or other applicable license
agreement, including, without limitation, that your use is for
the sole purpose of programming logic devices manufactured by
Intel and sold by Intel or its authorized distributors.  Please
refer to the applicable agreement for further details.
*/
(header "graphic" (version "1.4"))
(pin
	(input)
	(rect -1648 368 -1440 384)
	(text "INPUT" (rect 165 0 193 10)(font "Arial" (font_size 6)))
	(text "axle_1_vent_timer_trip" (rect 5 0 115 17)(font "Intel Clear" ))
	(pt 208 8)
	(drawing
		(line (pt 124 12)(pt 149 12))
		(line (pt 124 4)(pt 149 4))
		(line (pt 153 8)(pt 208 8))
		(line (pt 124 12)(pt 124 4))
		(line (pt 149 4)(pt 153 8))
		(line (pt 149 12)(pt 153 8))
	)
	(text "VCC" (rect 168 7 188 17)(font "Arial" (font_size 6)))
	(annotation_block (location)(rect 336 -88 392 -64))
)
(pin
	(input)
	(rect -1656 384 -1440 400)
	(text "INPUT" (rect 173 0 201 10)(font "Arial" (font_size 6)))
	(text "axle_1_hold_timer_trip" (rect 5 0 115 17)(font "Intel Clear" ))
	(pt 216 8)
	(drawing
		(line (pt 132 12)(pt 157 12))
		(line (pt 132 4)(pt 157 4))
		(line (pt 161 8)(pt 216 8))
		(line (pt 132 12)(pt 132 4))
		(line (pt 157 4)(pt 161 8))
		(line (pt 157 12)(pt 161 8))
	)
	(text "VCC" (rect 176 7 196 17)(font "Arial" (font_size 6)))
	(annotation_block (location)(rect 320 -64 376 -40))
)
(pin
	(input)
	(rect -1712 400 -1440 416)
	(text "INPUT" (rect 229 0 257 10)(font "Arial" (font_size 6)))
	(text "axle_1_vent_hold_off_timer_running" (rect 5 0 182 17)(font "Intel Clear" ))
	(pt 272 8)
	(drawing
		(line (pt 188 12)(pt 213 12))
		(line (pt 188 4)(pt 213 4))
		(line (pt 217 8)(pt 272 8))
		(line (pt 188 12)(pt 188 4))
		(line (pt 213 4)(pt 217 8))
		(line (pt 213 12)(pt 217 8))
	)
	(text "VCC" (rect 232 7 252 17)(font "Arial" (font_size 6)))
	(annotation_block (location)(rect 320 -40 376 -16))
)
(pin
	(input)
	(rect -1664 416 -1440 432)
	(text "INPUT" (rect 181 0 209 10)(font "Arial" (font_size 6)))
	(text "axle_1_vent_timer_running" (rect 5 0 135 17)(font "Intel Clear" ))
	(pt 224 8)
	(drawing
		(line (pt 140 12)(pt 165 12))
		(line (pt 140 4)(pt 165 4))
		(line (pt 169 8)(pt 224 8))
		(line (pt 140 12)(pt 140 4))
		(line (pt 165 4)(pt 169 8))
		(line (pt 165 12)(pt 169 8))
	)
	(text "VCC" (rect 184 7 204 17)(font "Arial" (font_size 6)))
	(annotation_block (location)(rect 312 -24 368 0))
)
(pin
	(input)
	(rect -1664 432 -1440 448)
	(text "INPUT" (rect 181 0 209 10)(font "Arial" (font_size 6)))
	(text "axle_1_hold_timer_running" (rect 5 0 135 17)(font "Intel Clear" ))
	(pt 224 8)
	(drawing
		(line (pt 140 12)(pt 165 12))
		(line (pt 140 4)(pt 165 4))
		(line (pt 169 8)(pt 224 8))
		(line (pt 140 12)(pt 140 4))
		(line (pt 165 4)(pt 169 8))
		(line (pt 165 12)(pt 169 8))
	)
	(text "VCC" (rect 184 7 204 17)(font "Arial" (font_size 6)))
	(annotation_block (location)(rect 304 -8 360 16))
)
(pin
	(input)
	(rect -1608 448 -1440 464)
	(text "INPUT" (rect 125 0 153 10)(font "Arial" (font_size 6)))
	(text "axle_1_spare" (rect 5 0 68 17)(font "Intel Clear" ))
	(pt 168 8)
	(drawing
		(line (pt 84 12)(pt 109 12))
		(line (pt 84 4)(pt 109 4))
		(line (pt 113 8)(pt 168 8))
		(line (pt 84 12)(pt 84 4))
		(line (pt 109 4)(pt 113 8))
		(line (pt 109 12)(pt 113 8))
	)
	(text "VCC" (rect 128 7 148 17)(font "Arial" (font_size 6)))
	(annotation_block (location)(rect 304 0 360 24))
)
(pin
	(input)
	(rect -1656 688 -1448 704)
	(text "INPUT" (rect 165 0 193 10)(font "Arial" (font_size 6)))
	(text "axle_2_vent_timer_trip" (rect 5 0 115 17)(font "Intel Clear" ))
	(pt 208 8)
	(drawing
		(line (pt 124 12)(pt 149 12))
		(line (pt 124 4)(pt 149 4))
		(line (pt 153 8)(pt 208 8))
		(line (pt 124 12)(pt 124 4))
		(line (pt 149 4)(pt 153 8))
		(line (pt 149 12)(pt 153 8))
	)
	(text "VCC" (rect 168 7 188 17)(font "Arial" (font_size 6)))
	(annotation_block (location)(rect 312 216 368 240))
)
(pin
	(input)
	(rect -1664 704 -1448 720)
	(text "INPUT" (rect 173 0 201 10)(font "Arial" (font_size 6)))
	(text "axle_2_hold_timer_trip" (rect 5 0 115 17)(font "Intel Clear" ))
	(pt 216 8)
	(drawing
		(line (pt 132 12)(pt 157 12))
		(line (pt 132 4)(pt 157 4))
		(line (pt 161 8)(pt 216 8))
		(line (pt 132 12)(pt 132 4))
		(line (pt 157 4)(pt 161 8))
		(line (pt 157 12)(pt 161 8))
	)
	(text "VCC" (rect 176 7 196 17)(font "Arial" (font_size 6)))
	(annotation_block (location)(rect 296 240 352 264))
)
(pin
	(input)
	(rect -1728 720 -1448 736)
	(text "INPUT" (rect 237 0 265 10)(font "Arial" (font_size 6)))
	(text "axle_2_vent_hold_off_timer_running" (rect 5 0 182 17)(font "Intel Clear" ))
	(pt 280 8)
	(drawing
		(line (pt 196 12)(pt 221 12))
		(line (pt 196 4)(pt 221 4))
		(line (pt 225 8)(pt 280 8))
		(line (pt 196 12)(pt 196 4))
		(line (pt 221 4)(pt 225 8))
		(line (pt 221 12)(pt 225 8))
	)
	(text "VCC" (rect 240 7 260 17)(font "Arial" (font_size 6)))
	(annotation_block (location)(rect 296 264 352 288))
)
(pin
	(input)
	(rect -1680 736 -1448 752)
	(text "INPUT" (rect 189 0 217 10)(font "Arial" (font_size 6)))
	(text "axle_2_vent_timer_running" (rect 5 0 135 17)(font "Intel Clear" ))
	(pt 232 8)
	(drawing
		(line (pt 148 12)(pt 173 12))
		(line (pt 148 4)(pt 173 4))
		(line (pt 177 8)(pt 232 8))
		(line (pt 148 12)(pt 148 4))
		(line (pt 173 4)(pt 177 8))
		(line (pt 173 12)(pt 177 8))
	)
	(text "VCC" (rect 192 7 212 17)(font "Arial" (font_size 6)))
	(annotation_block (location)(rect 288 280 344 304))
)
(pin
	(input)
	(rect -1672 752 -1448 768)
	(text "INPUT" (rect 181 0 209 10)(font "Arial" (font_size 6)))
	(text "axle_2_hold_timer_running" (rect 5 0 135 17)(font "Intel Clear" ))
	(pt 224 8)
	(drawing
		(line (pt 140 12)(pt 165 12))
		(line (pt 140 4)(pt 165 4))
		(line (pt 169 8)(pt 224 8))
		(line (pt 140 12)(pt 140 4))
		(line (pt 165 4)(pt 169 8))
		(line (pt 165 12)(pt 169 8))
	)
	(text "VCC" (rect 184 7 204 17)(font "Arial" (font_size 6)))
	(annotation_block (location)(rect 280 296 336 320))
)
(pin
	(input)
	(rect -1616 768 -1448 784)
	(text "INPUT" (rect 125 0 153 10)(font "Arial" (font_size 6)))
	(text "axle_2_spare" (rect 5 0 68 17)(font "Intel Clear" ))
	(pt 168 8)
	(drawing
		(line (pt 84 12)(pt 109 12))
		(line (pt 84 4)(pt 109 4))
		(line (pt 113 8)(pt 168 8))
		(line (pt 84 12)(pt 84 4))
		(line (pt 109 4)(pt 113 8))
		(line (pt 109 12)(pt 113 8))
	)
	(text "VCC" (rect 128 7 148 17)(font "Arial" (font_size 6)))
	(annotation_block (location)(rect 280 304 336 328))
)
(pin
	(input)
	(rect -1704 1816 -1464 1832)
	(text "INPUT" (rect 197 0 225 10)(font "Arial" (font_size 6)))
	(text "axle_2_equalise_valve_drive" (rect 5 0 145 17)(font "Intel Clear" ))
	(pt 240 8)
	(drawing
		(line (pt 156 12)(pt 181 12))
		(line (pt 156 4)(pt 181 4))
		(line (pt 185 8)(pt 240 8))
		(line (pt 156 12)(pt 156 4))
		(line (pt 181 4)(pt 185 8))
		(line (pt 181 12)(pt 185 8))
	)
	(text "VCC" (rect 200 7 220 17)(font "Arial" (font_size 6)))
)
(pin
	(input)
	(rect -1704 1832 -1464 1848)
	(text "INPUT" (rect 197 0 225 10)(font "Arial" (font_size 6)))
	(text "axle_1_equalise_valve_drive" (rect 5 0 145 17)(font "Intel Clear" ))
	(pt 240 8)
	(drawing
		(line (pt 156 12)(pt 181 12))
		(line (pt 156 4)(pt 181 4))
		(line (pt 185 8)(pt 240 8))
		(line (pt 156 12)(pt 156 4))
		(line (pt 181 4)(pt 185 8))
		(line (pt 181 12)(pt 185 8))
	)
	(text "VCC" (rect 200 7 220 17)(font "Arial" (font_size 6)))
)
(pin
	(input)
	(rect -1680 1848 -1464 1864)
	(text "INPUT" (rect 173 0 201 10)(font "Arial" (font_size 6)))
	(text "axle_2_vent_valve_drive" (rect 5 0 126 17)(font "Intel Clear" ))
	(pt 216 8)
	(drawing
		(line (pt 132 12)(pt 157 12))
		(line (pt 132 4)(pt 157 4))
		(line (pt 161 8)(pt 216 8))
		(line (pt 132 12)(pt 132 4))
		(line (pt 157 4)(pt 161 8))
		(line (pt 157 12)(pt 161 8))
	)
	(text "VCC" (rect 176 7 196 17)(font "Arial" (font_size 6)))
)
(pin
	(input)
	(rect -1680 1864 -1464 1880)
	(text "INPUT" (rect 173 0 201 10)(font "Arial" (font_size 6)))
	(text "axle_1_vent_valve_drive" (rect 5 0 126 17)(font "Intel Clear" ))
	(pt 216 8)
	(drawing
		(line (pt 132 12)(pt 157 12))
		(line (pt 132 4)(pt 157 4))
		(line (pt 161 8)(pt 216 8))
		(line (pt 132 12)(pt 132 4))
		(line (pt 157 4)(pt 161 8))
		(line (pt 157 12)(pt 161 8))
	)
	(text "VCC" (rect 176 7 196 17)(font "Arial" (font_size 6)))
)
(pin
	(input)
	(rect -1680 1880 -1464 1896)
	(text "INPUT" (rect 173 0 201 10)(font "Arial" (font_size 6)))
	(text "axle_2_hold_valve_drive" (rect 5 0 126 17)(font "Intel Clear" ))
	(pt 216 8)
	(drawing
		(line (pt 132 12)(pt 157 12))
		(line (pt 132 4)(pt 157 4))
		(line (pt 161 8)(pt 216 8))
		(line (pt 132 12)(pt 132 4))
		(line (pt 157 4)(pt 161 8))
		(line (pt 157 12)(pt 161 8))
	)
	(text "VCC" (rect 176 7 196 17)(font "Arial" (font_size 6)))
)
(pin
	(input)
	(rect -1680 1896 -1464 1912)
	(text "INPUT" (rect 173 0 201 10)(font "Arial" (font_size 6)))
	(text "axle_1_hold_valve_drive" (rect 5 0 126 17)(font "Intel Clear" ))
	(pt 216 8)
	(drawing
		(line (pt 132 12)(pt 157 12))
		(line (pt 132 4)(pt 157 4))
		(line (pt 161 8)(pt 216 8))
		(line (pt 132 12)(pt 132 4))
		(line (pt 157 4)(pt 161 8))
		(line (pt 157 12)(pt 161 8))
	)
	(text "VCC" (rect 176 7 196 17)(font "Arial" (font_size 6)))
)
(pin
	(input)
	(rect -1776 1192 -1512 1208)
	(text "INPUT" (rect 221 0 249 10)(font "Arial" (font_size 6)))
	(text "external_lbsr_trip_vd_fpga_filtered" (rect 5 0 173 17)(font "Intel Clear" ))
	(pt 264 8)
	(drawing
		(line (pt 180 12)(pt 205 12))
		(line (pt 180 4)(pt 205 4))
		(line (pt 209 8)(pt 264 8))
		(line (pt 180 12)(pt 180 4))
		(line (pt 205 4)(pt 209 8))
		(line (pt 205 12)(pt 209 8))
	)
	(text "VCC" (rect 224 7 244 17)(font "Arial" (font_size 6)))
	(annotation_block (location)(rect 232 840 288 864))
)
(pin
	(input)
	(rect -1752 1488 -1504 1504)
	(text "INPUT" (rect 205 0 233 10)(font "Arial" (font_size 6)))
	(text "remote_release_dig_in_filtered" (rect 5 0 154 17)(font "Intel Clear" ))
	(pt 248 8)
	(drawing
		(line (pt 164 12)(pt 189 12))
		(line (pt 164 4)(pt 189 4))
		(line (pt 193 8)(pt 248 8))
		(line (pt 164 12)(pt 164 4))
		(line (pt 189 4)(pt 193 8))
		(line (pt 189 12)(pt 193 8))
	)
	(text "VCC" (rect 208 7 228 17)(font "Arial" (font_size 6)))
	(annotation_block (location)(rect 248 1264 304 1288))
)
(pin
	(input)
	(rect -1640 464 -1440 480)
	(text "INPUT" (rect 157 0 185 10)(font "Arial" (font_size 6)))
	(text "wsp_axle_1_healthy" (rect 5 0 105 12)(font "Arial" ))
	(pt 200 8)
	(drawing
		(line (pt 116 12)(pt 141 12))
		(line (pt 116 4)(pt 141 4))
		(line (pt 145 8)(pt 200 8))
		(line (pt 116 12)(pt 116 4))
		(line (pt 141 4)(pt 145 8))
		(line (pt 141 12)(pt 145 8))
	)
	(text "VCC" (rect 160 7 180 17)(font "Arial" (font_size 6)))
	(annotation_block (location)(rect 456 432 520 456))
)
(pin
	(input)
	(rect -1752 480 -1440 496)
	(text "INPUT" (rect 270 0 298 10)(font "Arial" (font_size 6)))
	(text "axle_1_valve_drive_enable_mon_vd_fpga" (rect 5 0 214 12)(font "Arial" ))
	(pt 312 8)
	(drawing
		(line (pt 229 12)(pt 254 12))
		(line (pt 229 4)(pt 254 4))
		(line (pt 258 8)(pt 313 8))
		(line (pt 229 12)(pt 229 4))
		(line (pt 254 4)(pt 258 8))
		(line (pt 254 12)(pt 258 8))
	)
	(text "VCC" (rect 273 7 293 17)(font "Arial" (font_size 6)))
	(annotation_block (location)(rect 280 320 336 344))
)
(pin
	(input)
	(rect -1616 496 -1440 512)
	(text "INPUT" (rect 133 0 161 10)(font "Arial" (font_size 6)))
	(text "axle_1_equalise" (rect 5 0 83 12)(font "Arial" ))
	(pt 176 8)
	(drawing
		(line (pt 92 12)(pt 117 12))
		(line (pt 92 4)(pt 117 4))
		(line (pt 121 8)(pt 176 8))
		(line (pt 92 12)(pt 92 4))
		(line (pt 117 4)(pt 121 8))
		(line (pt 117 12)(pt 121 8))
	)
	(text "VCC" (rect 136 7 156 17)(font "Arial" (font_size 6)))
)
(pin
	(input)
	(rect -1632 512 -1440 528)
	(text "INPUT" (rect 146 0 174 10)(font "Arial" (font_size 6)))
	(text "wsp_axle_1_vent" (rect 5 0 89 17)(font "Intel Clear" ))
	(pt 192 8)
	(drawing
		(line (pt 105 12)(pt 130 12))
		(line (pt 105 4)(pt 130 4))
		(line (pt 134 8)(pt 189 8))
		(line (pt 105 12)(pt 105 4))
		(line (pt 130 4)(pt 134 8))
		(line (pt 130 12)(pt 134 8))
	)
	(text "VCC" (rect 149 7 169 17)(font "Arial" (font_size 6)))
	(annotation_block (location)(rect 384 192 440 216))
)
(pin
	(input)
	(rect -1624 528 -1440 544)
	(text "INPUT" (rect 141 0 169 10)(font "Arial" (font_size 6)))
	(text "wsp_axle_1_hold" (rect 5 0 89 17)(font "Intel Clear" ))
	(pt 184 8)
	(drawing
		(line (pt 100 12)(pt 125 12))
		(line (pt 100 4)(pt 125 4))
		(line (pt 129 8)(pt 184 8))
		(line (pt 100 12)(pt 100 4))
		(line (pt 125 4)(pt 129 8))
		(line (pt 125 12)(pt 129 8))
	)
	(text "VCC" (rect 144 7 164 17)(font "Arial" (font_size 6)))
	(annotation_block (location)(rect 384 168 440 192))
)
(pin
	(input)
	(rect -1616 544 -1440 560)
	(text "INPUT" (rect 133 0 161 10)(font "Arial" (font_size 6)))
	(text "sb_axle-1_vent" (rect 5 0 80 17)(font "Intel Clear" ))
	(pt 176 8)
	(drawing
		(line (pt 92 12)(pt 117 12))
		(line (pt 92 4)(pt 117 4))
		(line (pt 121 8)(pt 176 8))
		(line (pt 92 12)(pt 92 4))
		(line (pt 117 4)(pt 121 8))
		(line (pt 117 12)(pt 121 8))
	)
	(text "VCC" (rect 136 7 156 17)(font "Arial" (font_size 6)))
	(annotation_block (location)(rect 384 144 440 168))
)
(pin
	(input)
	(rect -1616 560 -1440 576)
	(text "INPUT" (rect 133 0 161 10)(font "Arial" (font_size 6)))
	(text "sb_axle_1_hold" (rect 5 0 81 12)(font "Arial" ))
	(pt 176 8)
	(drawing
		(line (pt 92 12)(pt 117 12))
		(line (pt 92 4)(pt 117 4))
		(line (pt 121 8)(pt 176 8))
		(line (pt 92 12)(pt 92 4))
		(line (pt 117 4)(pt 121 8))
		(line (pt 117 12)(pt 121 8))
	)
	(text "VCC" (rect 136 7 156 17)(font "Arial" (font_size 6)))
	(annotation_block (location)(rect 384 120 440 144))
)
(pin
	(input)
	(rect -1680 784 -1480 800)
	(text "INPUT" (rect 157 0 185 10)(font "Arial" (font_size 6)))
	(text "wsp_axle_2_healthy" (rect 5 0 105 12)(font "Arial" ))
	(pt 200 8)
	(drawing
		(line (pt 116 12)(pt 141 12))
		(line (pt 116 4)(pt 141 4))
		(line (pt 145 8)(pt 200 8))
		(line (pt 116 12)(pt 116 4))
		(line (pt 141 4)(pt 145 8))
		(line (pt 141 12)(pt 145 8))
	)
	(text "VCC" (rect 160 7 180 17)(font "Arial" (font_size 6)))
	(annotation_block (location)(rect 368 760 424 784))
)
(pin
	(input)
	(rect -1784 800 -1480 816)
	(text "INPUT" (rect 261 0 289 10)(font "Arial" (font_size 6)))
	(text "axle_2_valve_drive_enable_mon_vd_fpga" (rect 5 0 214 12)(font "Arial" ))
	(pt 304 8)
	(drawing
		(line (pt 220 12)(pt 245 12))
		(line (pt 220 4)(pt 245 4))
		(line (pt 249 8)(pt 304 8))
		(line (pt 220 12)(pt 220 4))
		(line (pt 245 4)(pt 249 8))
		(line (pt 245 12)(pt 249 8))
	)
	(text "VCC" (rect 264 7 284 17)(font "Arial" (font_size 6)))
	(annotation_block (location)(rect 232 632 288 656))
)
(pin
	(input)
	(rect -1664 816 -1488 832)
	(text "INPUT" (rect 133 0 161 10)(font "Arial" (font_size 6)))
	(text "axle_2_equalise" (rect 5 0 83 12)(font "Arial" ))
	(pt 176 8)
	(drawing
		(line (pt 92 12)(pt 117 12))
		(line (pt 92 4)(pt 117 4))
		(line (pt 121 8)(pt 176 8))
		(line (pt 92 12)(pt 92 4))
		(line (pt 117 4)(pt 121 8))
		(line (pt 117 12)(pt 121 8))
	)
	(text "VCC" (rect 136 7 156 17)(font "Arial" (font_size 6)))
)
(pin
	(input)
	(rect -1664 832 -1480 848)
	(text "INPUT" (rect 138 0 166 10)(font "Arial" (font_size 6)))
	(text "wsp_axle_2_vent" (rect 5 0 90 12)(font "Arial" ))
	(pt 184 8)
	(drawing
		(line (pt 97 12)(pt 122 12))
		(line (pt 97 4)(pt 122 4))
		(line (pt 126 8)(pt 181 8))
		(line (pt 97 12)(pt 97 4))
		(line (pt 122 4)(pt 126 8))
		(line (pt 122 12)(pt 126 8))
	)
	(text "VCC" (rect 141 7 161 17)(font "Arial" (font_size 6)))
	(annotation_block (location)(rect 360 560 416 584))
)
(pin
	(input)
	(rect -1656 848 -1480 864)
	(text "INPUT" (rect 133 0 161 10)(font "Arial" (font_size 6)))
	(text "wsp_axle_2_hold" (rect 5 0 88 12)(font "Arial" ))
	(pt 176 8)
	(drawing
		(line (pt 92 12)(pt 117 12))
		(line (pt 92 4)(pt 117 4))
		(line (pt 121 8)(pt 176 8))
		(line (pt 92 12)(pt 92 4))
		(line (pt 117 4)(pt 121 8))
		(line (pt 117 12)(pt 121 8))
	)
	(text "VCC" (rect 136 7 156 17)(font "Arial" (font_size 6)))
	(annotation_block (location)(rect 360 536 416 560))
)
(pin
	(input)
	(rect -1664 864 -1488 880)
	(text "INPUT" (rect 133 0 161 10)(font "Arial" (font_size 6)))
	(text "sb_axle_2_vent" (rect 5 0 83 12)(font "Arial" ))
	(pt 176 8)
	(drawing
		(line (pt 92 12)(pt 117 12))
		(line (pt 92 4)(pt 117 4))
		(line (pt 121 8)(pt 176 8))
		(line (pt 92 12)(pt 92 4))
		(line (pt 117 4)(pt 121 8))
		(line (pt 117 12)(pt 121 8))
	)
	(text "VCC" (rect 136 7 156 17)(font "Arial" (font_size 6)))
	(annotation_block (location)(rect 376 512 432 536))
)
(pin
	(input)
	(rect -1648 880 -1472 896)
	(text "INPUT" (rect 133 0 161 10)(font "Arial" (font_size 6)))
	(text "sb_axle_2_hold" (rect 5 0 81 12)(font "Arial" ))
	(pt 176 8)
	(drawing
		(line (pt 92 12)(pt 117 12))
		(line (pt 92 4)(pt 117 4))
		(line (pt 121 8)(pt 176 8))
		(line (pt 92 12)(pt 92 4))
		(line (pt 117 4)(pt 121 8))
		(line (pt 117 12)(pt 121 8))
	)
	(text "VCC" (rect 136 7 156 17)(font "Arial" (font_size 6)))
	(annotation_block (location)(rect 360 488 416 512))
)
(pin
	(input)
	(rect -1672 1032 -1504 1048)
	(text "INPUT" (rect 125 0 153 10)(font "Arial" (font_size 6)))
	(text "gp_o5" (rect 5 0 35 12)(font "Arial" ))
	(pt 168 8)
	(drawing
		(line (pt 84 12)(pt 109 12))
		(line (pt 84 4)(pt 109 4))
		(line (pt 113 8)(pt 168 8))
		(line (pt 84 12)(pt 84 4))
		(line (pt 109 4)(pt 113 8))
		(line (pt 109 12)(pt 113 8))
	)
	(text "VCC" (rect 128 7 148 17)(font "Arial" (font_size 6)))
)
(pin
	(input)
	(rect -1672 1048 -1504 1064)
	(text "INPUT" (rect 125 0 153 10)(font "Arial" (font_size 6)))
	(text "gp_o4" (rect 5 0 35 12)(font "Arial" ))
	(pt 168 8)
	(drawing
		(line (pt 84 12)(pt 109 12))
		(line (pt 84 4)(pt 109 4))
		(line (pt 113 8)(pt 168 8))
		(line (pt 84 12)(pt 84 4))
		(line (pt 109 4)(pt 113 8))
		(line (pt 109 12)(pt 113 8))
	)
	(text "VCC" (rect 128 7 148 17)(font "Arial" (font_size 6)))
	(annotation_block (location)(rect 344 896 408 920))
)
(pin
	(input)
	(rect -1672 1064 -1504 1080)
	(text "INPUT" (rect 125 0 153 10)(font "Arial" (font_size 6)))
	(text "sp_o3" (rect 5 0 35 12)(font "Arial" ))
	(pt 168 8)
	(drawing
		(line (pt 84 12)(pt 109 12))
		(line (pt 84 4)(pt 109 4))
		(line (pt 113 8)(pt 168 8))
		(line (pt 84 12)(pt 84 4))
		(line (pt 109 4)(pt 113 8))
		(line (pt 109 12)(pt 113 8))
	)
	(text "VCC" (rect 128 7 148 17)(font "Arial" (font_size 6)))
	(annotation_block (location)(rect 344 904 408 928))
)
(pin
	(input)
	(rect -1672 1080 -1504 1096)
	(text "INPUT" (rect 125 0 153 10)(font "Arial" (font_size 6)))
	(text "gp_o2" (rect 5 0 35 12)(font "Arial" ))
	(pt 168 8)
	(drawing
		(line (pt 84 12)(pt 109 12))
		(line (pt 84 4)(pt 109 4))
		(line (pt 113 8)(pt 168 8))
		(line (pt 84 12)(pt 84 4))
		(line (pt 109 4)(pt 113 8))
		(line (pt 109 12)(pt 113 8))
	)
	(text "VCC" (rect 128 7 148 17)(font "Arial" (font_size 6)))
	(annotation_block (location)(rect 344 912 408 936))
)
(pin
	(input)
	(rect -1680 1096 -1512 1112)
	(text "INPUT" (rect 125 0 153 10)(font "Arial" (font_size 6)))
	(text "gp_o1" (rect 5 0 35 12)(font "Arial" ))
	(pt 168 8)
	(drawing
		(line (pt 84 12)(pt 109 12))
		(line (pt 84 4)(pt 109 4))
		(line (pt 113 8)(pt 168 8))
		(line (pt 84 12)(pt 84 4))
		(line (pt 109 4)(pt 113 8))
		(line (pt 109 12)(pt 113 8))
	)
	(text "VCC" (rect 128 7 148 17)(font "Arial" (font_size 6)))
	(annotation_block (location)(rect 336 920 400 944))
)
(pin
	(input)
	(rect -1680 1112 -1512 1128)
	(text "INPUT" (rect 125 0 153 10)(font "Arial" (font_size 6)))
	(text "gp_o0" (rect 5 0 35 12)(font "Arial" ))
	(pt 168 8)
	(drawing
		(line (pt 84 12)(pt 109 12))
		(line (pt 84 4)(pt 109 4))
		(line (pt 113 8)(pt 168 8))
		(line (pt 84 12)(pt 84 4))
		(line (pt 109 4)(pt 113 8))
		(line (pt 109 12)(pt 113 8))
	)
	(text "VCC" (rect 128 7 148 17)(font "Arial" (font_size 6)))
	(annotation_block (location)(rect 336 928 392 952))
)
(pin
	(input)
	(rect -1720 1144 -1512 1160)
	(text "INPUT" (rect 162 0 190 10)(font "Arial" (font_size 6)))
	(text "vd_crc_error_latched" (rect 5 0 106 17)(font "Intel Clear" ))
	(pt 208 8)
	(drawing
		(line (pt 121 12)(pt 146 12))
		(line (pt 121 4)(pt 146 4))
		(line (pt 150 8)(pt 205 8))
		(line (pt 121 12)(pt 121 4))
		(line (pt 146 4)(pt 150 8))
		(line (pt 146 12)(pt 150 8))
	)
	(text "VCC" (rect 165 7 185 17)(font "Arial" (font_size 6)))
	(annotation_block (location)(rect 216 944 280 968))
)
(pin
	(input)
	(rect -1768 1160 -1512 1176)
	(text "INPUT" (rect 213 0 241 10)(font "Arial" (font_size 6)))
	(text "safety_interlock_mon_vd_fpga" (rect 5 0 160 12)(font "Arial" ))
	(pt 256 8)
	(drawing
		(line (pt 172 12)(pt 197 12))
		(line (pt 172 4)(pt 197 4))
		(line (pt 201 8)(pt 256 8))
		(line (pt 172 12)(pt 172 4))
		(line (pt 197 4)(pt 201 8))
		(line (pt 197 12)(pt 201 8))
	)
	(text "VCC" (rect 216 7 236 17)(font "Arial" (font_size 6)))
	(annotation_block (location)(rect 208 944 264 968))
)
(pin
	(input)
	(rect -1712 1176 -1512 1192)
	(text "INPUT" (rect 154 0 182 10)(font "Arial" (font_size 6)))
	(text "brake_pipe_control" (rect 5 0 98 17)(font "Intel Clear" ))
	(pt 200 8)
	(drawing
		(line (pt 113 12)(pt 138 12))
		(line (pt 113 4)(pt 138 4))
		(line (pt 142 8)(pt 197 8))
		(line (pt 113 12)(pt 113 4))
		(line (pt 138 4)(pt 142 8))
		(line (pt 138 12)(pt 142 8))
	)
	(text "VCC" (rect 157 7 177 17)(font "Arial" (font_size 6)))
	(annotation_block (location)(rect 2736 432 2800 456))
)
(pin
	(input)
	(rect -1728 1208 -1512 1224)
	(text "INPUT" (rect 170 0 198 10)(font "Arial" (font_size 6)))
	(text "internal_lbsr_vd_fpga" (rect 5 0 111 17)(font "Intel Clear" ))
	(pt 216 8)
	(drawing
		(line (pt 129 12)(pt 154 12))
		(line (pt 129 4)(pt 154 4))
		(line (pt 158 8)(pt 213 8))
		(line (pt 129 12)(pt 129 4))
		(line (pt 154 4)(pt 158 8))
		(line (pt 154 12)(pt 158 8))
	)
	(text "VCC" (rect 173 7 193 17)(font "Arial" (font_size 6)))
	(annotation_block (location)(rect 2736 384 2792 408))
)
(pin
	(input)
	(rect -1712 1224 -1512 1240)
	(text "INPUT" (rect 154 0 182 10)(font "Arial" (font_size 6)))
	(text "micro_bcp_in_range" (rect 5 0 103 12)(font "Arial" ))
	(pt 200 8)
	(drawing
		(line (pt 113 12)(pt 138 12))
		(line (pt 113 4)(pt 138 4))
		(line (pt 142 8)(pt 197 8))
		(line (pt 113 12)(pt 113 4))
		(line (pt 138 4)(pt 142 8))
		(line (pt 138 12)(pt 142 8))
	)
	(text "VCC" (rect 157 7 177 17)(font "Arial" (font_size 6)))
	(annotation_block (location)(rect 184 1024 248 1048))
)
(pin
	(input)
	(rect -1720 1240 -1512 1256)
	(text "INPUT" (rect 165 0 193 10)(font "Arial" (font_size 6)))
	(text "lw_fpga_bcp_in_range" (rect 5 0 114 12)(font "Arial" ))
	(pt 208 8)
	(drawing
		(line (pt 124 12)(pt 149 12))
		(line (pt 124 4)(pt 149 4))
		(line (pt 153 8)(pt 208 8))
		(line (pt 124 12)(pt 124 4))
		(line (pt 149 4)(pt 153 8))
		(line (pt 149 12)(pt 153 8))
	)
	(text "VCC" (rect 168 7 188 17)(font "Arial" (font_size 6)))
	(annotation_block (location)(rect 184 1048 240 1072))
)
(pin
	(input)
	(rect -1672 1504 -1504 1520)
	(text "INPUT" (rect 125 0 153 10)(font "Arial" (font_size 6)))
	(text "link" (rect 5 0 22 12)(font "Arial" ))
	(pt 168 8)
	(drawing
		(line (pt 84 12)(pt 109 12))
		(line (pt 84 4)(pt 109 4))
		(line (pt 113 8)(pt 168 8))
		(line (pt 84 12)(pt 84 4))
		(line (pt 109 4)(pt 113 8))
		(line (pt 109 12)(pt 113 8))
	)
	(text "VCC" (rect 128 7 148 17)(font "Arial" (font_size 6)))
	(annotation_block (location)(rect 208 1304 264 1328))
)
(pin
	(input)
	(rect -1712 1520 -1512 1536)
	(text "INPUT" (rect 160 0 188 10)(font "Arial" (font_size 6)))
	(text "local_emergency_2" (rect 5 0 101 12)(font "Arial" ))
	(pt 200 8)
	(drawing
		(line (pt 119 12)(pt 144 12))
		(line (pt 119 4)(pt 144 4))
		(line (pt 148 8)(pt 203 8))
		(line (pt 119 12)(pt 119 4))
		(line (pt 144 4)(pt 148 8))
		(line (pt 144 12)(pt 148 8))
	)
	(text "VCC" (rect 163 7 183 17)(font "Arial" (font_size 6)))
	(annotation_block (location)(rect 112 1344 168 1368))
)
(pin
	(input)
	(rect -1672 1552 -1504 1568)
	(text "INPUT" (rect 122 0 150 10)(font "Arial" (font_size 6)))
	(text "emergency_2" (rect 5 0 70 17)(font "Intel Clear" ))
	(pt 168 8)
	(drawing
		(line (pt 81 12)(pt 106 12))
		(line (pt 81 4)(pt 106 4))
		(line (pt 110 8)(pt 165 8))
		(line (pt 81 12)(pt 81 4))
		(line (pt 106 4)(pt 110 8))
		(line (pt 106 12)(pt 110 8))
	)
	(text "VCC" (rect 125 7 145 17)(font "Arial" (font_size 6)))
	(annotation_block (location)(rect 248 1360 304 1384))
)
(pin
	(input)
	(rect -1672 1568 -1504 1584)
	(text "INPUT" (rect 122 0 150 10)(font "Arial" (font_size 6)))
	(text "emergency_1" (rect 5 0 70 17)(font "Intel Clear" ))
	(pt 168 8)
	(drawing
		(line (pt 81 12)(pt 106 12))
		(line (pt 81 4)(pt 106 4))
		(line (pt 110 8)(pt 165 8))
		(line (pt 81 12)(pt 81 4))
		(line (pt 106 4)(pt 110 8))
		(line (pt 106 12)(pt 110 8))
	)
	(text "VCC" (rect 125 7 145 17)(font "Arial" (font_size 6)))
	(annotation_block (location)(rect 248 1368 304 1392))
)
(pin
	(input)
	(rect -1704 1536 -1512 1552)
	(text "INPUT" (rect 152 0 180 10)(font "Arial" (font_size 6)))
	(text "local_emergency_1" (rect 5 0 101 12)(font "Arial" ))
	(pt 192 8)
	(drawing
		(line (pt 111 12)(pt 136 12))
		(line (pt 111 4)(pt 136 4))
		(line (pt 140 8)(pt 195 8))
		(line (pt 111 12)(pt 111 4))
		(line (pt 136 4)(pt 140 8))
		(line (pt 136 12)(pt 140 8))
	)
	(text "VCC" (rect 155 7 175 17)(font "Arial" (font_size 6)))
	(annotation_block (location)(rect 112 1360 168 1384))
)
(pin
	(input)
	(rect -1680 1656 -1464 1672)
	(text "INPUT" (rect 173 0 201 10)(font "Arial" (font_size 6)))
	(text "ext_lbsr_pulse_enable" (rect 5 0 114 12)(font "Arial" ))
	(pt 216 8)
	(drawing
		(line (pt 132 12)(pt 157 12))
		(line (pt 132 4)(pt 157 4))
		(line (pt 161 8)(pt 216 8))
		(line (pt 132 12)(pt 132 4))
		(line (pt 157 4)(pt 161 8))
		(line (pt 157 12)(pt 161 8))
	)
	(text "VCC" (rect 176 7 196 17)(font "Arial" (font_size 6)))
)
(pin
	(input)
	(rect -1680 1672 -1464 1688)
	(text "INPUT" (rect 173 0 201 10)(font "Arial" (font_size 6)))
	(text "rem_rel_pulse_enable" (rect 5 0 114 17)(font "Intel Clear" ))
	(pt 216 8)
	(drawing
		(line (pt 132 12)(pt 157 12))
		(line (pt 132 4)(pt 157 4))
		(line (pt 161 8)(pt 216 8))
		(line (pt 132 12)(pt 132 4))
		(line (pt 157 4)(pt 161 8))
		(line (pt 157 12)(pt 161 8))
	)
	(text "VCC" (rect 176 7 196 17)(font "Arial" (font_size 6)))
)
(pin
	(input)
	(rect -1632 1688 -1464 1704)
	(text "INPUT" (rect 125 0 153 10)(font "Arial" (font_size 6)))
	(text "wsp_in_vent" (rect 5 0 66 17)(font "Intel Clear" ))
	(pt 168 8)
	(drawing
		(line (pt 84 12)(pt 109 12))
		(line (pt 84 4)(pt 109 4))
		(line (pt 113 8)(pt 168 8))
		(line (pt 84 12)(pt 84 4))
		(line (pt 109 4)(pt 113 8))
		(line (pt 109 12)(pt 113 8))
	)
	(text "VCC" (rect 128 7 148 17)(font "Arial" (font_size 6)))
)
(pin
	(input)
	(rect -1632 1704 -1464 1720)
	(text "INPUT" (rect 125 0 153 10)(font "Arial" (font_size 6)))
	(text "wsp_in_hold" (rect 5 0 66 17)(font "Intel Clear" ))
	(pt 168 8)
	(drawing
		(line (pt 84 12)(pt 109 12))
		(line (pt 84 4)(pt 109 4))
		(line (pt 113 8)(pt 168 8))
		(line (pt 84 12)(pt 84 4))
		(line (pt 109 4)(pt 113 8))
		(line (pt 109 12)(pt 113 8))
	)
	(text "VCC" (rect 128 7 148 17)(font "Arial" (font_size 6)))
)
(pin
	(input)
	(rect -1664 1720 -1464 1736)
	(text "INPUT" (rect 157 0 185 10)(font "Arial" (font_size 6)))
	(text "axle_2_wsp_in_vent" (rect 5 0 102 17)(font "Intel Clear" ))
	(pt 200 8)
	(drawing
		(line (pt 116 12)(pt 141 12))
		(line (pt 116 4)(pt 141 4))
		(line (pt 145 8)(pt 200 8))
		(line (pt 116 12)(pt 116 4))
		(line (pt 141 4)(pt 145 8))
		(line (pt 141 12)(pt 145 8))
	)
	(text "VCC" (rect 160 7 180 17)(font "Arial" (font_size 6)))
)
(pin
	(input)
	(rect -1664 1736 -1464 1752)
	(text "INPUT" (rect 157 0 185 10)(font "Arial" (font_size 6)))
	(text "axle_2_wsp_in_hold" (rect 5 0 102 17)(font "Intel Clear" ))
	(pt 200 8)
	(drawing
		(line (pt 116 12)(pt 141 12))
		(line (pt 116 4)(pt 141 4))
		(line (pt 145 8)(pt 200 8))
		(line (pt 116 12)(pt 116 4))
		(line (pt 141 4)(pt 145 8))
		(line (pt 141 12)(pt 145 8))
	)
	(text "VCC" (rect 160 7 180 17)(font "Arial" (font_size 6)))
)
(pin
	(input)
	(rect -1664 1752 -1464 1768)
	(text "INPUT" (rect 157 0 185 10)(font "Arial" (font_size 6)))
	(text "axle_1_wsp_in_vent" (rect 5 0 102 17)(font "Intel Clear" ))
	(pt 200 8)
	(drawing
		(line (pt 116 12)(pt 141 12))
		(line (pt 116 4)(pt 141 4))
		(line (pt 145 8)(pt 200 8))
		(line (pt 116 12)(pt 116 4))
		(line (pt 141 4)(pt 145 8))
		(line (pt 141 12)(pt 145 8))
	)
	(text "VCC" (rect 160 7 180 17)(font "Arial" (font_size 6)))
)
(pin
	(input)
	(rect -1664 1768 -1464 1784)
	(text "INPUT" (rect 157 0 185 10)(font "Arial" (font_size 6)))
	(text "axle_1_wsp_in_hold" (rect 5 0 102 17)(font "Intel Clear" ))
	(pt 200 8)
	(drawing
		(line (pt 116 12)(pt 141 12))
		(line (pt 116 4)(pt 141 4))
		(line (pt 145 8)(pt 200 8))
		(line (pt 116 12)(pt 116 4))
		(line (pt 141 4)(pt 145 8))
		(line (pt 141 12)(pt 145 8))
	)
	(text "VCC" (rect 160 7 180 17)(font "Arial" (font_size 6)))
)
(pin
	(input)
	(rect -1704 1784 -1464 1800)
	(text "INPUT" (rect 197 0 225 10)(font "Arial" (font_size 6)))
	(text "remote_release_valve_drive" (rect 5 0 143 17)(font "Intel Clear" ))
	(pt 240 8)
	(drawing
		(line (pt 156 12)(pt 181 12))
		(line (pt 156 4)(pt 181 4))
		(line (pt 185 8)(pt 240 8))
		(line (pt 156 12)(pt 156 4))
		(line (pt 181 4)(pt 185 8))
		(line (pt 181 12)(pt 185 8))
	)
	(text "VCC" (rect 200 7 220 17)(font "Arial" (font_size 6)))
)
(pin
	(input)
	(rect -1648 1800 -1464 1816)
	(text "INPUT" (rect 141 0 169 10)(font "Arial" (font_size 6)))
	(text "link_valve_drive" (rect 5 0 86 17)(font "Intel Clear" ))
	(pt 184 8)
	(drawing
		(line (pt 100 12)(pt 125 12))
		(line (pt 100 4)(pt 125 4))
		(line (pt 129 8)(pt 184 8))
		(line (pt 100 12)(pt 100 4))
		(line (pt 125 4)(pt 129 8))
		(line (pt 125 12)(pt 129 8))
	)
	(text "VCC" (rect 144 7 164 17)(font "Arial" (font_size 6)))
)
(pin
	(output)
	(rect -880 320 -651 336)
	(text "OUTPUT" (rect 1 0 39 10)(font "Arial" (font_size 6)))
	(text "reg_1_axle_1_status[15..0]" (rect 90 0 223 12)(font "Arial" ))
	(pt 0 8)
	(drawing
		(line (pt 0 8)(pt 52 8))
		(line (pt 52 4)(pt 78 4))
		(line (pt 52 12)(pt 78 12))
		(line (pt 52 12)(pt 52 4))
		(line (pt 78 4)(pt 82 8))
		(line (pt 82 8)(pt 78 12))
		(line (pt 78 12)(pt 82 8))
	)
)
(pin
	(output)
	(rect -880 640 -656 656)
	(text "OUTPUT" (rect 1 0 39 10)(font "Arial" (font_size 6)))
	(text "reg_2_axle_2_status[15..0]" (rect 90 0 218 17)(font "Intel Clear" ))
	(pt 0 8)
	(drawing
		(line (pt 0 8)(pt 52 8))
		(line (pt 52 4)(pt 78 4))
		(line (pt 52 12)(pt 78 12))
		(line (pt 52 12)(pt 52 4))
		(line (pt 78 4)(pt 82 8))
		(line (pt 82 8)(pt 78 12))
		(line (pt 78 12)(pt 82 8))
	)
)
(pin
	(output)
	(rect -952 1000 -750 1016)
	(text "OUTPUT" (rect 1 0 39 10)(font "Arial" (font_size 6)))
	(text "reg_3_inputs_1[15..0]" (rect 90 0 196 12)(font "Arial" ))
	(pt 0 8)
	(drawing
		(line (pt 0 8)(pt 52 8))
		(line (pt 52 4)(pt 78 4))
		(line (pt 52 12)(pt 78 12))
		(line (pt 52 12)(pt 52 4))
		(line (pt 78 4)(pt 82 8))
		(line (pt 82 8)(pt 78 12))
		(line (pt 78 12)(pt 82 8))
	)
)
(pin
	(output)
	(rect -952 1328 -760 1344)
	(text "OUTPUT" (rect 1 0 39 10)(font "Arial" (font_size 6)))
	(text "reg_4_inuts_2[15..0]" (rect 90 0 186 17)(font "Intel Clear" ))
	(pt 0 8)
	(drawing
		(line (pt 0 8)(pt 52 8))
		(line (pt 52 4)(pt 78 4))
		(line (pt 52 12)(pt 78 12))
		(line (pt 52 12)(pt 52 4))
		(line (pt 78 4)(pt 82 8))
		(line (pt 82 8)(pt 78 12))
		(line (pt 78 12)(pt 82 8))
	)
)
(pin
	(output)
	(rect -944 1656 -751 1672)
	(text "OUTPUT" (rect 1 0 39 10)(font "Arial" (font_size 6)))
	(text "reg_5_outputs[15..0]" (rect 90 0 187 17)(font "Intel Clear" ))
	(pt 0 8)
	(drawing
		(line (pt 0 8)(pt 52 8))
		(line (pt 52 4)(pt 78 4))
		(line (pt 52 12)(pt 78 12))
		(line (pt 52 12)(pt 52 4))
		(line (pt 78 4)(pt 82 8))
		(line (pt 82 8)(pt 78 12))
		(line (pt 78 12)(pt 82 8))
	)
)
(symbol
	(rect -1408 1352 -1376 1384)
	(text "GND" (rect 8 16 29 26)(font "Arial" (font_size 6)))
	(text "inst19" (rect 3 21 31 38)(font "Intel Clear" )(invisible))
	(port
		(pt 16 0)
		(output)
		(text "1" (rect 18 0 23 12)(font "Courier New" (bold))(invisible))
		(text "1" (rect 18 0 23 12)(font "Courier New" (bold))(invisible))
		(line (pt 16 8)(pt 16 0))
	)
	(drawing
		(line (pt 8 8)(pt 16 16))
		(line (pt 16 16)(pt 24 8))
		(line (pt 8 8)(pt 24 8))
	)
)
(symbol
	(rect -1264 296 -1096 600)
	(text "bus_combine" (rect 5 0 69 12)(font "Arial" ))
	(text "inst21" (rect 8 288 36 305)(font "Intel Clear" ))
	(port
		(pt 0 32)
		(input)
		(text "d15_i" (rect 0 0 25 12)(font "Arial" ))
		(text "d15_i" (rect 21 27 46 39)(font "Arial" ))
		(line (pt 0 32)(pt 16 32))
	)
	(port
		(pt 0 48)
		(input)
		(text "d14_i" (rect 0 0 25 12)(font "Arial" ))
		(text "d14_i" (rect 21 43 46 55)(font "Arial" ))
		(line (pt 0 48)(pt 16 48))
	)
	(port
		(pt 0 64)
		(input)
		(text "d13_i" (rect 0 0 25 12)(font "Arial" ))
		(text "d13_i" (rect 21 59 46 71)(font "Arial" ))
		(line (pt 0 64)(pt 16 64))
	)
	(port
		(pt 0 80)
		(input)
		(text "d12_i" (rect 0 0 25 12)(font "Arial" ))
		(text "d12_i" (rect 21 75 46 87)(font "Arial" ))
		(line (pt 0 80)(pt 16 80))
	)
	(port
		(pt 0 96)
		(input)
		(text "d11_i" (rect 0 0 25 12)(font "Arial" ))
		(text "d11_i" (rect 21 91 46 103)(font "Arial" ))
		(line (pt 0 96)(pt 16 96))
	)
	(port
		(pt 0 112)
		(input)
		(text "d10_i" (rect 0 0 25 12)(font "Arial" ))
		(text "d10_i" (rect 21 107 46 119)(font "Arial" ))
		(line (pt 0 112)(pt 16 112))
	)
	(port
		(pt 0 128)
		(input)
		(text "d09_i" (rect 0 0 25 12)(font "Arial" ))
		(text "d09_i" (rect 21 123 46 135)(font "Arial" ))
		(line (pt 0 128)(pt 16 128))
	)
	(port
		(pt 0 144)
		(input)
		(text "d08_i" (rect 0 0 25 12)(font "Arial" ))
		(text "d08_i" (rect 21 139 46 151)(font "Arial" ))
		(line (pt 0 144)(pt 16 144))
	)
	(port
		(pt 0 160)
		(input)
		(text "d07_i" (rect 0 0 25 12)(font "Arial" ))
		(text "d07_i" (rect 21 155 46 167)(font "Arial" ))
		(line (pt 0 160)(pt 16 160))
	)
	(port
		(pt 0 176)
		(input)
		(text "d06_i" (rect 0 0 25 12)(font "Arial" ))
		(text "d06_i" (rect 21 171 46 183)(font "Arial" ))
		(line (pt 0 176)(pt 16 176))
	)
	(port
		(pt 0 192)
		(input)
		(text "d05_i" (rect 0 0 25 12)(font "Arial" ))
		(text "d05_i" (rect 21 187 46 199)(font "Arial" ))
		(line (pt 0 192)(pt 16 192))
	)
	(port
		(pt 0 208)
		(input)
		(text "d04_i" (rect 0 0 25 12)(font "Arial" ))
		(text "d04_i" (rect 21 203 46 215)(font "Arial" ))
		(line (pt 0 208)(pt 16 208))
	)
	(port
		(pt 0 224)
		(input)
		(text "d03_i" (rect 0 0 25 12)(font "Arial" ))
		(text "d03_i" (rect 21 219 46 231)(font "Arial" ))
		(line (pt 0 224)(pt 16 224))
	)
	(port
		(pt 0 240)
		(input)
		(text "d02_i" (rect 0 0 25 12)(font "Arial" ))
		(text "d02_i" (rect 21 235 46 247)(font "Arial" ))
		(line (pt 0 240)(pt 16 240))
	)
	(port
		(pt 0 256)
		(input)
		(text "d01_i" (rect 0 0 25 12)(font "Arial" ))
		(text "d01_i" (rect 21 251 46 263)(font "Arial" ))
		(line (pt 0 256)(pt 16 256))
	)
	(port
		(pt 0 272)
		(input)
		(text "d00_i" (rect 0 0 25 12)(font "Arial" ))
		(text "d00_i" (rect 21 267 46 279)(font "Arial" ))
		(line (pt 0 272)(pt 16 272))
	)
	(port
		(pt 168 32)
		(output)
		(text "reg_o[15..0]" (rect 0 0 59 12)(font "Arial" ))
		(text "reg_o[15..0]" (rect 98 27 157 39)(font "Arial" ))
		(line (pt 168 32)(pt 152 32)(line_width 3))
	)
	(drawing
		(rectangle (rect 16 16 152 288))
	)
)
(symbol
	(rect -1264 616 -1096 920)
	(text "bus_combine" (rect 5 0 69 12)(font "Arial" ))
	(text "inst22" (rect 8 288 36 305)(font "Intel Clear" ))
	(port
		(pt 0 32)
		(input)
		(text "d15_i" (rect 0 0 25 12)(font "Arial" ))
		(text "d15_i" (rect 21 27 46 39)(font "Arial" ))
		(line (pt 0 32)(pt 16 32))
	)
	(port
		(pt 0 48)
		(input)
		(text "d14_i" (rect 0 0 25 12)(font "Arial" ))
		(text "d14_i" (rect 21 43 46 55)(font "Arial" ))
		(line (pt 0 48)(pt 16 48))
	)
	(port
		(pt 0 64)
		(input)
		(text "d13_i" (rect 0 0 25 12)(font "Arial" ))
		(text "d13_i" (rect 21 59 46 71)(font "Arial" ))
		(line (pt 0 64)(pt 16 64))
	)
	(port
		(pt 0 80)
		(input)
		(text "d12_i" (rect 0 0 25 12)(font "Arial" ))
		(text "d12_i" (rect 21 75 46 87)(font "Arial" ))
		(line (pt 0 80)(pt 16 80))
	)
	(port
		(pt 0 96)
		(input)
		(text "d11_i" (rect 0 0 25 12)(font "Arial" ))
		(text "d11_i" (rect 21 91 46 103)(font "Arial" ))
		(line (pt 0 96)(pt 16 96))
	)
	(port
		(pt 0 112)
		(input)
		(text "d10_i" (rect 0 0 25 12)(font "Arial" ))
		(text "d10_i" (rect 21 107 46 119)(font "Arial" ))
		(line (pt 0 112)(pt 16 112))
	)
	(port
		(pt 0 128)
		(input)
		(text "d09_i" (rect 0 0 25 12)(font "Arial" ))
		(text "d09_i" (rect 21 123 46 135)(font "Arial" ))
		(line (pt 0 128)(pt 16 128))
	)
	(port
		(pt 0 144)
		(input)
		(text "d08_i" (rect 0 0 25 12)(font "Arial" ))
		(text "d08_i" (rect 21 139 46 151)(font "Arial" ))
		(line (pt 0 144)(pt 16 144))
	)
	(port
		(pt 0 160)
		(input)
		(text "d07_i" (rect 0 0 25 12)(font "Arial" ))
		(text "d07_i" (rect 21 155 46 167)(font "Arial" ))
		(line (pt 0 160)(pt 16 160))
	)
	(port
		(pt 0 176)
		(input)
		(text "d06_i" (rect 0 0 25 12)(font "Arial" ))
		(text "d06_i" (rect 21 171 46 183)(font "Arial" ))
		(line (pt 0 176)(pt 16 176))
	)
	(port
		(pt 0 192)
		(input)
		(text "d05_i" (rect 0 0 25 12)(font "Arial" ))
		(text "d05_i" (rect 21 187 46 199)(font "Arial" ))
		(line (pt 0 192)(pt 16 192))
	)
	(port
		(pt 0 208)
		(input)
		(text "d04_i" (rect 0 0 25 12)(font "Arial" ))
		(text "d04_i" (rect 21 203 46 215)(font "Arial" ))
		(line (pt 0 208)(pt 16 208))
	)
	(port
		(pt 0 224)
		(input)
		(text "d03_i" (rect 0 0 25 12)(font "Arial" ))
		(text "d03_i" (rect 21 219 46 231)(font "Arial" ))
		(line (pt 0 224)(pt 16 224))
	)
	(port
		(pt 0 240)
		(input)
		(text "d02_i" (rect 0 0 25 12)(font "Arial" ))
		(text "d02_i" (rect 21 235 46 247)(font "Arial" ))
		(line (pt 0 240)(pt 16 240))
	)
	(port
		(pt 0 256)
		(input)
		(text "d01_i" (rect 0 0 25 12)(font "Arial" ))
		(text "d01_i" (rect 21 251 46 263)(font "Arial" ))
		(line (pt 0 256)(pt 16 256))
	)
	(port
		(pt 0 272)
		(input)
		(text "d00_i" (rect 0 0 25 12)(font "Arial" ))
		(text "d00_i" (rect 21 267 46 279)(font "Arial" ))
		(line (pt 0 272)(pt 16 272))
	)
	(port
		(pt 168 32)
		(output)
		(text "reg_o[15..0]" (rect 0 0 59 12)(font "Arial" ))
		(text "reg_o[15..0]" (rect 98 27 157 39)(font "Arial" ))
		(line (pt 168 32)(pt 152 32)(line_width 3))
	)
	(drawing
		(rectangle (rect 16 16 152 288))
	)
)
(symbol
	(rect -1264 976 -1096 1280)
	(text "bus_combine" (rect 5 0 69 12)(font "Arial" ))
	(text "inst23" (rect 8 288 36 305)(font "Intel Clear" ))
	(port
		(pt 0 32)
		(input)
		(text "d15_i" (rect 0 0 25 12)(font "Arial" ))
		(text "d15_i" (rect 21 27 46 39)(font "Arial" ))
		(line (pt 0 32)(pt 16 32))
	)
	(port
		(pt 0 48)
		(input)
		(text "d14_i" (rect 0 0 25 12)(font "Arial" ))
		(text "d14_i" (rect 21 43 46 55)(font "Arial" ))
		(line (pt 0 48)(pt 16 48))
	)
	(port
		(pt 0 64)
		(input)
		(text "d13_i" (rect 0 0 25 12)(font "Arial" ))
		(text "d13_i" (rect 21 59 46 71)(font "Arial" ))
		(line (pt 0 64)(pt 16 64))
	)
	(port
		(pt 0 80)
		(input)
		(text "d12_i" (rect 0 0 25 12)(font "Arial" ))
		(text "d12_i" (rect 21 75 46 87)(font "Arial" ))
		(line (pt 0 80)(pt 16 80))
	)
	(port
		(pt 0 96)
		(input)
		(text "d11_i" (rect 0 0 25 12)(font "Arial" ))
		(text "d11_i" (rect 21 91 46 103)(font "Arial" ))
		(line (pt 0 96)(pt 16 96))
	)
	(port
		(pt 0 112)
		(input)
		(text "d10_i" (rect 0 0 25 12)(font "Arial" ))
		(text "d10_i" (rect 21 107 46 119)(font "Arial" ))
		(line (pt 0 112)(pt 16 112))
	)
	(port
		(pt 0 128)
		(input)
		(text "d09_i" (rect 0 0 25 12)(font "Arial" ))
		(text "d09_i" (rect 21 123 46 135)(font "Arial" ))
		(line (pt 0 128)(pt 16 128))
	)
	(port
		(pt 0 144)
		(input)
		(text "d08_i" (rect 0 0 25 12)(font "Arial" ))
		(text "d08_i" (rect 21 139 46 151)(font "Arial" ))
		(line (pt 0 144)(pt 16 144))
	)
	(port
		(pt 0 160)
		(input)
		(text "d07_i" (rect 0 0 25 12)(font "Arial" ))
		(text "d07_i" (rect 21 155 46 167)(font "Arial" ))
		(line (pt 0 160)(pt 16 160))
	)
	(port
		(pt 0 176)
		(input)
		(text "d06_i" (rect 0 0 25 12)(font "Arial" ))
		(text "d06_i" (rect 21 171 46 183)(font "Arial" ))
		(line (pt 0 176)(pt 16 176))
	)
	(port
		(pt 0 192)
		(input)
		(text "d05_i" (rect 0 0 25 12)(font "Arial" ))
		(text "d05_i" (rect 21 187 46 199)(font "Arial" ))
		(line (pt 0 192)(pt 16 192))
	)
	(port
		(pt 0 208)
		(input)
		(text "d04_i" (rect 0 0 25 12)(font "Arial" ))
		(text "d04_i" (rect 21 203 46 215)(font "Arial" ))
		(line (pt 0 208)(pt 16 208))
	)
	(port
		(pt 0 224)
		(input)
		(text "d03_i" (rect 0 0 25 12)(font "Arial" ))
		(text "d03_i" (rect 21 219 46 231)(font "Arial" ))
		(line (pt 0 224)(pt 16 224))
	)
	(port
		(pt 0 240)
		(input)
		(text "d02_i" (rect 0 0 25 12)(font "Arial" ))
		(text "d02_i" (rect 21 235 46 247)(font "Arial" ))
		(line (pt 0 240)(pt 16 240))
	)
	(port
		(pt 0 256)
		(input)
		(text "d01_i" (rect 0 0 25 12)(font "Arial" ))
		(text "d01_i" (rect 21 251 46 263)(font "Arial" ))
		(line (pt 0 256)(pt 16 256))
	)
	(port
		(pt 0 272)
		(input)
		(text "d00_i" (rect 0 0 25 12)(font "Arial" ))
		(text "d00_i" (rect 21 267 46 279)(font "Arial" ))
		(line (pt 0 272)(pt 16 272))
	)
	(port
		(pt 168 32)
		(output)
		(text "reg_o[15..0]" (rect 0 0 59 12)(font "Arial" ))
		(text "reg_o[15..0]" (rect 98 27 157 39)(font "Arial" ))
		(line (pt 168 32)(pt 152 32)(line_width 3))
	)
	(drawing
		(rectangle (rect 16 16 152 288))
	)
)
(symbol
	(rect -1264 1304 -1096 1608)
	(text "bus_combine" (rect 5 0 69 12)(font "Arial" ))
	(text "inst24" (rect 8 288 36 305)(font "Intel Clear" ))
	(port
		(pt 0 32)
		(input)
		(text "d15_i" (rect 0 0 25 12)(font "Arial" ))
		(text "d15_i" (rect 21 27 46 39)(font "Arial" ))
		(line (pt 0 32)(pt 16 32))
	)
	(port
		(pt 0 48)
		(input)
		(text "d14_i" (rect 0 0 25 12)(font "Arial" ))
		(text "d14_i" (rect 21 43 46 55)(font "Arial" ))
		(line (pt 0 48)(pt 16 48))
	)
	(port
		(pt 0 64)
		(input)
		(text "d13_i" (rect 0 0 25 12)(font "Arial" ))
		(text "d13_i" (rect 21 59 46 71)(font "Arial" ))
		(line (pt 0 64)(pt 16 64))
	)
	(port
		(pt 0 80)
		(input)
		(text "d12_i" (rect 0 0 25 12)(font "Arial" ))
		(text "d12_i" (rect 21 75 46 87)(font "Arial" ))
		(line (pt 0 80)(pt 16 80))
	)
	(port
		(pt 0 96)
		(input)
		(text "d11_i" (rect 0 0 25 12)(font "Arial" ))
		(text "d11_i" (rect 21 91 46 103)(font "Arial" ))
		(line (pt 0 96)(pt 16 96))
	)
	(port
		(pt 0 112)
		(input)
		(text "d10_i" (rect 0 0 25 12)(font "Arial" ))
		(text "d10_i" (rect 21 107 46 119)(font "Arial" ))
		(line (pt 0 112)(pt 16 112))
	)
	(port
		(pt 0 128)
		(input)
		(text "d09_i" (rect 0 0 25 12)(font "Arial" ))
		(text "d09_i" (rect 21 123 46 135)(font "Arial" ))
		(line (pt 0 128)(pt 16 128))
	)
	(port
		(pt 0 144)
		(input)
		(text "d08_i" (rect 0 0 25 12)(font "Arial" ))
		(text "d08_i" (rect 21 139 46 151)(font "Arial" ))
		(line (pt 0 144)(pt 16 144))
	)
	(port
		(pt 0 160)
		(input)
		(text "d07_i" (rect 0 0 25 12)(font "Arial" ))
		(text "d07_i" (rect 21 155 46 167)(font "Arial" ))
		(line (pt 0 160)(pt 16 160))
	)
	(port
		(pt 0 176)
		(input)
		(text "d06_i" (rect 0 0 25 12)(font "Arial" ))
		(text "d06_i" (rect 21 171 46 183)(font "Arial" ))
		(line (pt 0 176)(pt 16 176))
	)
	(port
		(pt 0 192)
		(input)
		(text "d05_i" (rect 0 0 25 12)(font "Arial" ))
		(text "d05_i" (rect 21 187 46 199)(font "Arial" ))
		(line (pt 0 192)(pt 16 192))
	)
	(port
		(pt 0 208)
		(input)
		(text "d04_i" (rect 0 0 25 12)(font "Arial" ))
		(text "d04_i" (rect 21 203 46 215)(font "Arial" ))
		(line (pt 0 208)(pt 16 208))
	)
	(port
		(pt 0 224)
		(input)
		(text "d03_i" (rect 0 0 25 12)(font "Arial" ))
		(text "d03_i" (rect 21 219 46 231)(font "Arial" ))
		(line (pt 0 224)(pt 16 224))
	)
	(port
		(pt 0 240)
		(input)
		(text "d02_i" (rect 0 0 25 12)(font "Arial" ))
		(text "d02_i" (rect 21 235 46 247)(font "Arial" ))
		(line (pt 0 240)(pt 16 240))
	)
	(port
		(pt 0 256)
		(input)
		(text "d01_i" (rect 0 0 25 12)(font "Arial" ))
		(text "d01_i" (rect 21 251 46 263)(font "Arial" ))
		(line (pt 0 256)(pt 16 256))
	)
	(port
		(pt 0 272)
		(input)
		(text "d00_i" (rect 0 0 25 12)(font "Arial" ))
		(text "d00_i" (rect 21 267 46 279)(font "Arial" ))
		(line (pt 0 272)(pt 16 272))
	)
	(port
		(pt 168 32)
		(output)
		(text "reg_o[15..0]" (rect 0 0 59 12)(font "Arial" ))
		(text "reg_o[15..0]" (rect 98 27 157 39)(font "Arial" ))
		(line (pt 168 32)(pt 152 32)(line_width 3))
	)
	(drawing
		(rectangle (rect 16 16 152 288))
	)
)
(symbol
	(rect -1264 1632 -1096 1936)
	(text "bus_combine" (rect 5 0 69 12)(font "Arial" ))
	(text "inst25" (rect 8 288 36 305)(font "Intel Clear" ))
	(port
		(pt 0 32)
		(input)
		(text "d15_i" (rect 0 0 25 12)(font "Arial" ))
		(text "d15_i" (rect 21 27 46 39)(font "Arial" ))
		(line (pt 0 32)(pt 16 32))
	)
	(port
		(pt 0 48)
		(input)
		(text "d14_i" (rect 0 0 25 12)(font "Arial" ))
		(text "d14_i" (rect 21 43 46 55)(font "Arial" ))
		(line (pt 0 48)(pt 16 48))
	)
	(port
		(pt 0 64)
		(input)
		(text "d13_i" (rect 0 0 25 12)(font "Arial" ))
		(text "d13_i" (rect 21 59 46 71)(font "Arial" ))
		(line (pt 0 64)(pt 16 64))
	)
	(port
		(pt 0 80)
		(input)
		(text "d12_i" (rect 0 0 25 12)(font "Arial" ))
		(text "d12_i" (rect 21 75 46 87)(font "Arial" ))
		(line (pt 0 80)(pt 16 80))
	)
	(port
		(pt 0 96)
		(input)
		(text "d11_i" (rect 0 0 25 12)(font "Arial" ))
		(text "d11_i" (rect 21 91 46 103)(font "Arial" ))
		(line (pt 0 96)(pt 16 96))
	)
	(port
		(pt 0 112)
		(input)
		(text "d10_i" (rect 0 0 25 12)(font "Arial" ))
		(text "d10_i" (rect 21 107 46 119)(font "Arial" ))
		(line (pt 0 112)(pt 16 112))
	)
	(port
		(pt 0 128)
		(input)
		(text "d09_i" (rect 0 0 25 12)(font "Arial" ))
		(text "d09_i" (rect 21 123 46 135)(font "Arial" ))
		(line (pt 0 128)(pt 16 128))
	)
	(port
		(pt 0 144)
		(input)
		(text "d08_i" (rect 0 0 25 12)(font "Arial" ))
		(text "d08_i" (rect 21 139 46 151)(font "Arial" ))
		(line (pt 0 144)(pt 16 144))
	)
	(port
		(pt 0 160)
		(input)
		(text "d07_i" (rect 0 0 25 12)(font "Arial" ))
		(text "d07_i" (rect 21 155 46 167)(font "Arial" ))
		(line (pt 0 160)(pt 16 160))
	)
	(port
		(pt 0 176)
		(input)
		(text "d06_i" (rect 0 0 25 12)(font "Arial" ))
		(text "d06_i" (rect 21 171 46 183)(font "Arial" ))
		(line (pt 0 176)(pt 16 176))
	)
	(port
		(pt 0 192)
		(input)
		(text "d05_i" (rect 0 0 25 12)(font "Arial" ))
		(text "d05_i" (rect 21 187 46 199)(font "Arial" ))
		(line (pt 0 192)(pt 16 192))
	)
	(port
		(pt 0 208)
		(input)
		(text "d04_i" (rect 0 0 25 12)(font "Arial" ))
		(text "d04_i" (rect 21 203 46 215)(font "Arial" ))
		(line (pt 0 208)(pt 16 208))
	)
	(port
		(pt 0 224)
		(input)
		(text "d03_i" (rect 0 0 25 12)(font "Arial" ))
		(text "d03_i" (rect 21 219 46 231)(font "Arial" ))
		(line (pt 0 224)(pt 16 224))
	)
	(port
		(pt 0 240)
		(input)
		(text "d02_i" (rect 0 0 25 12)(font "Arial" ))
		(text "d02_i" (rect 21 235 46 247)(font "Arial" ))
		(line (pt 0 240)(pt 16 240))
	)
	(port
		(pt 0 256)
		(input)
		(text "d01_i" (rect 0 0 25 12)(font "Arial" ))
		(text "d01_i" (rect 21 251 46 263)(font "Arial" ))
		(line (pt 0 256)(pt 16 256))
	)
	(port
		(pt 0 272)
		(input)
		(text "d00_i" (rect 0 0 25 12)(font "Arial" ))
		(text "d00_i" (rect 21 267 46 279)(font "Arial" ))
		(line (pt 0 272)(pt 16 272))
	)
	(port
		(pt 168 32)
		(output)
		(text "reg_o[15..0]" (rect 0 0 59 12)(font "Arial" ))
		(text "reg_o[15..0]" (rect 98 27 157 39)(font "Arial" ))
		(line (pt 168 32)(pt 152 32)(line_width 3))
	)
	(drawing
		(rectangle (rect 16 16 152 288))
	)
)
(symbol
	(rect -1416 336 -1384 368)
	(text "GND" (rect 8 16 29 26)(font "Arial" (font_size 6)))
	(text "inst20" (rect 3 21 31 38)(font "Intel Clear" )(invisible))
	(port
		(pt 16 0)
		(output)
		(text "1" (rect 18 0 23 12)(font "Courier New" (bold))(invisible))
		(text "1" (rect 18 0 23 12)(font "Courier New" (bold))(invisible))
		(line (pt 16 8)(pt 16 0))
	)
	(drawing
		(line (pt 8 8)(pt 16 16))
		(line (pt 16 16)(pt 24 8))
		(line (pt 8 8)(pt 24 8))
	)
)
(symbol
	(rect -1416 656 -1384 688)
	(text "GND" (rect 8 16 29 26)(font "Arial" (font_size 6)))
	(text "inst26" (rect 3 21 31 38)(font "Intel Clear" )(invisible))
	(port
		(pt 16 0)
		(output)
		(text "1" (rect 18 0 23 12)(font "Courier New" (bold))(invisible))
		(text "1" (rect 18 0 23 12)(font "Courier New" (bold))(invisible))
		(line (pt 16 8)(pt 16 0))
	)
	(drawing
		(line (pt 8 8)(pt 16 16))
		(line (pt 16 16)(pt 24 8))
		(line (pt 8 8)(pt 24 8))
	)
)
(connector
	(text "wsp_axle_2_healthy" (rect -1446 776 -1347 793)(font "Intel Clear" ))
	(pt -1480 792)
	(pt -1264 792)
)
(connector
	(pt -1480 808)
	(pt -1264 808)
)
(connector
	(text "wsp_axle_2_vent" (rect -1454 824 -1371 841)(font "Intel Clear" ))
	(pt -1480 840)
	(pt -1264 840)
)
(connector
	(text "wsp_axle_2_hold" (rect -1454 840 -1371 857)(font "Intel Clear" ))
	(pt -1480 856)
	(pt -1264 856)
)
(connector
	(text "sb_axle_2_vent" (rect -1454 856 -1379 873)(font "Intel Clear" ))
	(pt -1488 872)
	(pt -1264 872)
)
(connector
	(text "sb_axle_2_hold" (rect -1454 872 -1379 889)(font "Intel Clear" ))
	(pt -1472 888)
	(pt -1264 888)
)
(connector
	(text "reg_1_axle_1_status[15..0]" (rect -1086 312 -958 329)(font "Intel Clear" ))
	(pt -880 328)
	(pt -1096 328)
	(bus)
)
(connector
	(text "reg_2_axle_2_status[15..0]" (rect -1086 632 -958 649)(font "Intel Clear" ))
	(pt -880 648)
	(pt -1096 648)
	(bus)
)
(connector
	(text "axle_1_hold_timer_running" (rect -1430 424 -1300 441)(font "Intel Clear" ))
	(pt -1440 440)
	(pt -1264 440)
)
(connector
	(text "axle_1_vent_timer_running" (rect -1430 408 -1300 425)(font "Intel Clear" ))
	(pt -1440 424)
	(pt -1264 424)
)
(connector
	(pt -1400 328)
	(pt -1400 336)
)
(connector
	(pt -1264 360)
	(pt -1304 360)
)
(connector
	(pt -1264 344)
	(pt -1304 344)
)
(connector
	(pt -1400 648)
	(pt -1400 656)
)
(connector
	(pt -1264 680)
	(pt -1304 680)
)
(connector
	(pt -1264 664)
	(pt -1304 664)
)
(connector
	(text "axle_1_vent_hold_off_timer_running" (rect -1430 392 -1253 409)(font "Intel Clear" ))
	(pt -1440 408)
	(pt -1264 408)
)
(connector
	(pt -1400 328)
	(pt -1304 328)
)
(connector
	(pt -1304 328)
	(pt -1264 328)
)
(connector
	(pt -1304 328)
	(pt -1304 344)
)
(connector
	(pt -1304 344)
	(pt -1304 360)
)
(connector
	(pt -1400 648)
	(pt -1304 648)
)
(connector
	(pt -1304 648)
	(pt -1264 648)
)
(connector
	(pt -1304 648)
	(pt -1304 664)
)
(connector
	(pt -1304 664)
	(pt -1304 680)
)
(connector
	(text "axle_1_vent_timer_trip" (rect -1430 360 -1320 377)(font "Intel Clear" ))
	(pt -1440 376)
	(pt -1264 376)
)
(connector
	(text "axle_1_hold_timer_trip" (rect -1430 376 -1320 393)(font "Intel Clear" ))
	(pt -1440 392)
	(pt -1264 392)
)
(connector
	(text "axle_1_spare" (rect -1430 440 -1367 457)(font "Intel Clear" ))
	(pt -1264 456)
	(pt -1440 456)
)
(connector
	(text "axle_2_spare" (rect -1430 760 -1367 777)(font "Intel Clear" ))
	(pt -1264 776)
	(pt -1448 776)
)
(connector
	(text "axle_2_hold_timer_running" (rect -1430 744 -1300 761)(font "Intel Clear" ))
	(pt -1448 760)
	(pt -1264 760)
)
(connector
	(text "axle_2_vent_timer_running" (rect -1430 728 -1300 745)(font "Intel Clear" ))
	(pt -1448 744)
	(pt -1264 744)
)
(connector
	(text "axle_2_vent_hold_off_timer_running" (rect -1430 712 -1253 729)(font "Intel Clear" ))
	(pt -1448 728)
	(pt -1264 728)
)
(connector
	(text "axle_2_vent_timer_trip" (rect -1430 680 -1320 697)(font "Intel Clear" ))
	(pt -1448 696)
	(pt -1264 696)
)
(connector
	(text "axle_2_hold_timer_trip" (rect -1430 696 -1320 713)(font "Intel Clear" ))
	(pt -1448 712)
	(pt -1264 712)
)
(connector
	(text "wsp_axle_1_healthy" (rect -1438 456 -1339 473)(font "Intel Clear" ))
	(pt -1440 472)
	(pt -1264 472)
)
(connector
	(pt -1440 488)
	(pt -1264 488)
)
(connector
	(text "axle_1_equalise" (rect -1430 488 -1353 505)(font "Intel Clear" ))
	(pt -1440 504)
	(pt -1264 504)
)
(connector
	(text "wsp_axle_1_vent" (rect -1438 504 -1355 521)(font "Intel Clear" ))
	(pt -1440 520)
	(pt -1264 520)
)
(connector
	(text "wsp_axle_1_hold" (rect -1438 520 -1355 537)(font "Intel Clear" ))
	(pt -1440 536)
	(pt -1264 536)
)
(connector
	(text "sb_axle_1_vent" (rect -1438 536 -1363 553)(font "Intel Clear" ))
	(pt -1440 552)
	(pt -1264 552)
)
(connector
	(text "sb_axle_1_hold" (rect -1438 552 -1363 569)(font "Intel Clear" ))
	(pt -1440 568)
	(pt -1264 568)
)
(connector
	(pt -1392 1352)
	(pt -1392 1336)
)
(connector
	(text "GND" (rect -1366 992 -1345 1009)(font "Intel Clear" ))
	(pt -1368 1008)
	(pt -1264 1008)
)
(connector
	(text "GND" (rect -1366 1008 -1345 1025)(font "Intel Clear" ))
	(pt -1368 1024)
	(pt -1264 1024)
)
(connector
	(pt -1504 1040)
	(pt -1264 1040)
)
(connector
	(pt -1504 1056)
	(pt -1264 1056)
)
(connector
	(pt -1504 1072)
	(pt -1264 1072)
)
(connector
	(pt -1504 1088)
	(pt -1264 1088)
)
(connector
	(pt -1512 1104)
	(pt -1264 1104)
)
(connector
	(pt -1512 1120)
	(pt -1264 1120)
)
(connector
	(text "GND" (rect -1366 1120 -1345 1137)(font "Intel Clear" ))
	(pt -1368 1136)
	(pt -1264 1136)
)
(connector
	(pt -1512 1152)
	(pt -1264 1152)
)
(connector
	(pt -1512 1168)
	(pt -1264 1168)
)
(connector
	(text "brake_pipe_control" (rect -1486 1168 -1394 1185)(font "Intel Clear" ))
	(pt -1512 1184)
	(pt -1264 1184)
)
(connector
	(text "internal_lbsr_vd_fpga" (rect -1494 1200 -1389 1217)(font "Intel Clear" ))
	(pt -1512 1216)
	(pt -1264 1216)
)
(connector
	(pt -1512 1232)
	(pt -1264 1232)
)
(connector
	(pt -1512 1248)
	(pt -1264 1248)
)
(connector
	(pt -1320 1352)
	(pt -1264 1352)
)
(connector
	(pt -1320 1368)
	(pt -1264 1368)
)
(connector
	(pt -1320 1384)
	(pt -1264 1384)
)
(connector
	(pt -1320 1400)
	(pt -1264 1400)
)
(connector
	(pt -1320 1416)
	(pt -1264 1416)
)
(connector
	(pt -1320 1432)
	(pt -1264 1432)
)
(connector
	(pt -1320 1448)
	(pt -1264 1448)
)
(connector
	(pt -1320 1464)
	(pt -1264 1464)
)
(connector
	(pt -1320 1480)
	(pt -1264 1480)
)
(connector
	(pt -1504 1512)
	(pt -1264 1512)
)
(connector
	(pt -1512 1528)
	(pt -1264 1528)
)
(connector
	(pt -1512 1544)
	(pt -1264 1544)
)
(connector
	(text "emergency2" (rect -1502 1544 -1443 1561)(font "Intel Clear" ))
	(pt -1504 1560)
	(pt -1264 1560)
)
(connector
	(text "emergency1" (rect -1502 1560 -1443 1577)(font "Intel Clear" ))
	(pt -1504 1576)
	(pt -1264 1576)
)
(connector
	(text "reg_3_inputs_1[15..0]" (rect -1086 992 -984 1009)(font "Intel Clear" ))
	(pt -1096 1008)
	(pt -952 1008)
	(bus)
)
(connector
	(text "reg_4_inuts_2[15..0]" (rect -1086 1320 -990 1337)(font "Intel Clear" ))
	(pt -1096 1336)
	(pt -952 1336)
	(bus)
)
(connector
	(text "GND" (rect -1374 1320 -1353 1337)(font "Intel Clear" ))
	(pt -1392 1336)
	(pt -1320 1336)
)
(connector
	(pt -1320 1336)
	(pt -1264 1336)
)
(connector
	(pt -1320 1336)
	(pt -1320 1352)
)
(connector
	(pt -1320 1352)
	(pt -1320 1368)
)
(connector
	(pt -1320 1368)
	(pt -1320 1384)
)
(connector
	(pt -1320 1384)
	(pt -1320 1400)
)
(connector
	(pt -1320 1400)
	(pt -1320 1416)
)
(connector
	(pt -1320 1416)
	(pt -1320 1432)
)
(connector
	(pt -1320 1432)
	(pt -1320 1448)
)
(connector
	(pt -1320 1448)
	(pt -1320 1464)
)
(connector
	(pt -1320 1464)
	(pt -1320 1480)
)
(connector
	(text "axle_2_equalise_valve_drive" (rect -1454 1808 -1314 1825)(font "Intel Clear" ))
	(pt -1464 1824)
	(pt -1264 1824)
)
(connector
	(text "axle_1_equalise_valve_drive" (rect -1454 1824 -1314 1841)(font "Intel Clear" ))
	(pt -1464 1840)
	(pt -1264 1840)
)
(connector
	(text "axle_2_vent_valve_drive" (rect -1454 1840 -1333 1857)(font "Intel Clear" ))
	(pt -1464 1856)
	(pt -1264 1856)
)
(connector
	(text "axle_1_vent_valve_drive" (rect -1454 1856 -1333 1873)(font "Intel Clear" ))
	(pt -1464 1872)
	(pt -1264 1872)
)
(connector
	(text "axle_2_hold_valve_drive" (rect -1454 1872 -1333 1889)(font "Intel Clear" ))
	(pt -1464 1888)
	(pt -1264 1888)
)
(connector
	(text "axle_1_hold_valve_drive" (rect -1454 1888 -1333 1905)(font "Intel Clear" ))
	(pt -1464 1904)
	(pt -1264 1904)
)
(connector
	(text "reg_5_outputs[15..0]" (rect -1086 1648 -989 1665)(font "Intel Clear" ))
	(pt -1096 1664)
	(pt -944 1664)
	(bus)
)
(connector
	(text "external_lbsr_trip_vd_fpga_filtered" (rect -1486 1184 -1318 1201)(font "Intel Clear" ))
	(pt -1512 1200)
	(pt -1264 1200)
)
(connector
	(text "remote_release_dig_in_filtered" (rect -1494 1480 -1345 1497)(font "Intel Clear" ))
	(pt -1264 1496)
	(pt -1504 1496)
)
(connector
	(text "axle_2_equalise" (rect -1470 808 -1393 825)(font "Intel Clear" ))
	(pt -1488 824)
	(pt -1264 824)
)
(connector
	(text "ext_lbsr_pulse_enable" (rect -1454 1648 -1346 1665)(font "Intel Clear" ))
	(pt -1464 1664)
	(pt -1264 1664)
)
(connector
	(text "rem_rel_pulse_enable" (rect -1454 1664 -1346 1681)(font "Intel Clear" ))
	(pt -1464 1680)
	(pt -1264 1680)
)
(connector
	(text "wsp_in_vent" (rect -1414 1680 -1354 1697)(font "Intel Clear" ))
	(pt -1464 1696)
	(pt -1264 1696)
)
(connector
	(text "wsp_in_hold" (rect -1414 1696 -1354 1713)(font "Intel Clear" ))
	(pt -1464 1712)
	(pt -1264 1712)
)
(connector
	(text "axle_2_wsp_in_vent" (rect -1414 1712 -1317 1729)(font "Intel Clear" ))
	(pt -1464 1728)
	(pt -1264 1728)
)
(connector
	(text "axle_2_wsp_in_hold" (rect -1414 1728 -1317 1745)(font "Intel Clear" ))
	(pt -1464 1744)
	(pt -1264 1744)
)
(connector
	(text "axle_1_wsp_in_vent" (rect -1414 1744 -1317 1761)(font "Intel Clear" ))
	(pt -1464 1760)
	(pt -1264 1760)
)
(connector
	(text "axle_1_wsp_in_hold" (rect -1414 1760 -1317 1777)(font "Intel Clear" ))
	(pt -1464 1776)
	(pt -1264 1776)
)
(connector
	(text "remote_release_valve_drive" (rect -1454 1776 -1316 1793)(font "Intel Clear" ))
	(pt -1464 1792)
	(pt -1264 1792)
)
(connector
	(text "link_valve_drive" (rect -1454 1792 -1374 1809)(font "Intel Clear" ))
	(pt -1464 1808)
	(pt -1264 1808)
)
(junction (pt -1304 344))
(junction (pt -1304 328))
(junction (pt -1304 664))
(junction (pt -1304 648))
(junction (pt -1320 1336))
(junction (pt -1320 1352))
(junction (pt -1320 1368))
(junction (pt -1320 1384))
(junction (pt -1320 1400))
(junction (pt -1320 1416))
(junction (pt -1320 1432))
(junction (pt -1320 1448))
(junction (pt -1320 1464))
